source

    enabled
    status
    defaultbid

modified by us

    set boost enabled to off
    
        enabled changes to inactive 
        status changes to disabled

            edit boost and set new status

    set on boost
    
        enabled changes to active 
        status changes to original
        
            edit boost and set new status
    

check boosts changes

        if source.enabled != db.enabled ||  source.status  === archived
            user changed something
                disable rule and send alert 

        

set boost to off at hour x day z
    
get rules 
    get boost
        set boost to off
            if fail?
                log, email alert
                
            if sucess
                save?


        set boost to on
            if fail
                email alert
            
        set bid +
            fail?
        set bid -
            fail
        set bid restore
            rail 
